^C:\USERS\DEGAR\DOCUMENTS\IMAGE\TRABAJOS PRACTICOS\PROGRAMACION DE GRAFICOS 1\TRABAJOPRACTICO\EJERCICIO2\EJER2.CPP
C:\USERS\DEGAR\DOCUMENTS\IMAGE\TRABAJOS PRACTICOS\PROGRAMACION DE GRAFICOS 1\TRABAJOPRACTICO\EJERCICIO2\DEBUG\VC141.PDB
C:\USERS\DEGAR\DOCUMENTS\IMAGE\TRABAJOS PRACTICOS\PROGRAMACION DE GRAFICOS 1\TRABAJOPRACTICO\EJERCICIO2\DEBUG\VC141.IDB
C:\USERS\DEGAR\DOCUMENTS\IMAGE\TRABAJOS PRACTICOS\PROGRAMACION DE GRAFICOS 1\TRABAJOPRACTICO\EJERCICIO2\DEBUG\EJER2.OBJ
