^C:\USERS\DEGAR\DOCUMENTS\IMAGE\TRABAJOS PRACTICOS\PROGRAMACION DE GRAFICOS 1\TRABAJOPRACTICO\EJERCICIO2\DEBUG\EJER2.OBJ
C:\USERS\DEGAR\DOCUMENTS\IMAGE\TRABAJOS PRACTICOS\PROGRAMACION DE GRAFICOS 1\TRABAJOPRACTICO\DEBUG\EJERCICIO2.EXE
C:\USERS\DEGAR\DOCUMENTS\IMAGE\TRABAJOS PRACTICOS\PROGRAMACION DE GRAFICOS 1\TRABAJOPRACTICO\DEBUG\EJERCICIO2.ILK
C:\USERS\DEGAR\DOCUMENTS\IMAGE\TRABAJOS PRACTICOS\PROGRAMACION DE GRAFICOS 1\TRABAJOPRACTICO\DEBUG\EJERCICIO2.PDB
